{
    "dangles": "all", 
    "design_temperature": 37.0, 
    "design_template": "oooooooooooooooo", 
    "designed_sequence": "CACAUGCGGGCCCGCU", 
    "energy_model": "rna1999", 
    "free_energy": -4.3, 
    "max_iterations": 400, 
    "seed_sequence": "", 
    "sequence_GC_content": "0.750000", 
    "target_structure": ".....(((....)))."
}